…
I like to rename() all variables to follow this_convention_of_naming. It eliminates the variability found in datasets using naming norms (i.e., camelCase or Names.With.Periods) appropriate for other software.

The step also requires me to look at the variables carefully.

(harvie <- harvie %>%
  rename(
    participant = Participant,
    direction_rotation = DirectionofRotation,
    understated_feedback = Understated_Visual_Feedback,
    accurate_feedback = Accurate_Visual_Feedback,
    overstated_feedback = Overstated_Visual_Feedback
  ))

## # A tibble: 48 x 5
##    participant direction_rotat~ understated_fee~ accurate_feedba~
##          <dbl>            <dbl>            <dbl>            <dbl>
##  1           1                1             0.88                1
##  2           2                1             0.94                1
##  3           3                1             1.01                1
##  4           4                1             1.21                1
##  5           5                1             1.3                 1
##  6           6                1             1.32                1
##  7           7                1             1.4                 1
##  8           8                1             1.16                1
##  9           9                1             1.28                1
## 10          10                1             1.15                1
## # ... with 38 more rows, and 1 more variable: overstated_feedback <dbl>

This dataset is not tidy. Each row should contain one observation and each column one variable, intersecting at exactly one value. It is evident that we lack a response variable. What exactly is the outcome in question?

Remember, Harvie et al. (2015) measured the degree of rotation at which participants began to experience pain. In other words, the three feedback variables are measurements of the onset of pain.

Creation of a categorical response variable, feedback_type, and a continuous explanatory variable, pain_onset, requires elongating the data frame with key-value pairs.

(harvie_clean <- harvie %>% 
    gather(key = feedback_type, value = pain_onset,
           -c(participant, direction_rotation))
)

## # A tibble: 144 x 4
##    participant direction_rotation feedback_type        pain_onset
##          <dbl>              <dbl> <chr>                     <dbl>
##  1           1                  1 understated_feedback       0.88
##  2           2                  1 understated_feedback       0.94
##  3           3                  1 understated_feedback       1.01
##  4           4                  1 understated_feedback       1.21
##  5           5                  1 understated_feedback       1.3 
##  6           6                  1 understated_feedback       1.32
##  7           7                  1 understated_feedback       1.4 
##  8           8                  1 understated_feedback       1.16
##  9           9                  1 understated_feedback       1.28
## 10          10                  1 understated_feedback       1.15
## # ... with 134 more rows
…
